{
  "type": "biome",
  "domain": "biomesoplenty",
  "id": 55,
  "temperature": 2,
  "precipitation": 3,
  "erosion": {
    "min": 1,
    "max": 2
  },
  "volcanism": {
    "max": 1
  },
  "uplift": {
    "min": 1,
    "max": 2
  },
  "era": {
    "min": 2
  },
  "density": 2,
  "elevation": {
    "min": 1,
    "max": 2
  }
}
