{
  "type": "biome",
  "domain": "biomesoplenty",
  "id": 59,
  "temperature": 1,
  "precipitation": 2,
  "erosion": {
    "min": 1,
    "max": 2
  },
  "volcanism": 2,
  "uplift": 2,
  "era": {
    "min": 1,
    "max": 2
  },
  "density": {
    "min": 2
  },
  "elevation": {
    "min": 2
  }
}
