{
  "type": "feature",
  "rarity": 0.001,
  "temperature": 3,
  "precipitation": 0,
  "erosion": {
    "min": 1,
    "max": 2
  },
  "volcanism": {
    "min": 1,
    "max": 2
  },
  "uplift": {
    "min": 1,
    "max": 2
  },
  "era": {
    "min": 1,
    "max": 2
  },
  "density": {
    "max": 1
  },
  "elevation": {
    "min": 2
  }
}
