{
  "type": "feature_ocean",
  "rarity": 0.01,
  "temperature": 1,
  "precipitation": {
    "min": 2
  },
  "volcanism": {
    "max": 1
  },
  "uplift": {
    "max": 1
  },
  "era": {
    "min": 2
  },
  "elevation": 1
}
