{
  "type": "feature",
  "rarity": 0.01,
  "temperature": 1,
  "precipitation": 2,
  "erosion": {
    "min": 1,
    "max": 2
  },
  "volcanism": {
    "min": 1,
    "max": 2
  },
  "uplift": {
    "min": 2
  },
  "era": {
    "min": 2
  },
  "density": 2,
  "elevation": {
    "min": 2
  }
}
