{
  "type": "feature",
  "rarity": 0.008,
  "temperature": 3,
  "precipitation": {
    "min": 2
  },
  "erosion": {
    "min": 2
  },
  "volcanism": {
    "max": 2
  },
  "uplift": {
    "min": 1
  },
  "era": {
    "min": 2
  },
  "density": {
    "min": 2
  },
  "elevation": {
    "min": 1
  }
}
